PC000025.02.0|Interpro|IPR000504|                                                                                                                                                                                                                                                                                                                                                                                                                                                                                                                                                                                       
PC000025.02.0|Interpro|IPR001202|                                                                                                                                                                                                                                                                                                                                                                                                                                                                                                                                                                                       
PC000429.00.0|Interpro|IPR010400|                                                                                                                                                                                                                                                                                                                                                                                                                                                                                                                                                                                       
PC000478.04.0|Interpro|IPR013126|                                                                                                                                                                                                                                                                                                                                                                                                                                                                                                                                                                                       
PC000487.02.0|Interpro|IPR004600|                                                                                                                                                                                                                                                                                                                                                                                                                                                                                                                                                                                       
PC000488.02.0|Interpro|IPR001353|                                                                                                                                                                                                                                                                                                                                                                                                                                                                                                                                                                                       
PC000489.02.0|Interpro|IPR000133|                                                                                                                                                                                                                                                                                                                                                                                                                                                                                                                                                                                       
PC000491.02.0|Interpro|IPR001353|                                                                                                                                                                                                                                                                                                                                                                                                                                                                                                                                                                                       
PC000564.01.0|Interpro|IPR003123|                                                                                                                                                                                                                                                                                                                                                                                                                                                                                                                                                                                       
PC000596.04.0|Interpro|IPR005475|                                                                                                                                                                                                                                                                                                                                                                                                                                                                                                                                                                                       
PC000865.01.0|Interpro|IPR006153|                                                                                                                                                                                                                                                                                                                                                                                                                                                                                                                                                                                       
PC000865.01.0|Interpro|IPR011014|                                                                                                                                                                                                                                                                                                                                                                                                                                                                                                                                                                                       
PC000873.02.0|Interpro|IPR000398|                                                                                                                                                                                                                                                                                                                                                                                                                                                                                                                                                                                       
PC000873.02.0|Interpro|IPR001796|                                                                                                                                                                                                                                                                                                                                                                                                                                                                                                                                                                                       
PC000873.02.0|Interpro|IPR012262|                                                                                                                                                                                                                                                                                                                                                                                                                                                                                                                                                                                       
PC000874.02.0|Interpro|IPR011685|                                                                                                                                                                                                                                                                                                                                                                                                                                                                                                                                                                                       
PC100126.00.0|Interpro|IPR002673|                                                                                                                                                                                                                                                                                                                                                                                                                                                                                                                                                                                       
PC301391.00.0|Interpro|IPR011591|                                                                                                                                                                                                                                                                                                                                                                                                                                                                                                                                                                                       
PC302596.00.0|Interpro|IPR002205|                                                                                                                                                                                                                                                                                                                                                                                                                                                                                                                                                                                       
PC302596.00.0|Interpro|IPR013760|                                                                                                                                                                                                                                                                                                                                                                                                                                                                                                                                                                                       
