IPR001202|PS50020|PROSITE profiles|                                                                                                                                                                                                                                                                                                                                                                                                                                                                                                                                                                                     
IPR001202|SSF51045|SUPERFAMILY|                                                                                                                                                                                                                                                                                                                                                                                                                                                                                                                                                                                         
IPR001202|SM00456|SMART|                                                                                                                                                                                                                                                                                                                                                                                                                                                                                                                                                                                                
IPR010400|PF06201|Pfam|                                                                                                                                                                                                                                                                                                                                                                                                                                                                                                                                                                                                 
IPR001353|PF00227|Pfam|                                                                                                                                                                                                                                                                                                                                                                                                                                                                                                                                                                                                 
IPR005475|PS00802|PROSITE patterns|                                                                                                                                                                                                                                                                                                                                                                                                                                                                                                                                                                                     
IPR001796|PR00070|PRINTS|                                                                                                                                                                                                                                                                                                                                                                                                                                                                                                                                                                                               
IPR002673|PTHR12884|PANTHER|                                                                                                                                                                                                                                                                                                                                                                                                                                                                                                                                                                                            
IPR002205|PD000742|ProDom|                                                                                                                                                                                                                                                                                                                                                                                                                                                                                                                                                                                              
IPR013126|PD000089|ProDom|                                                                                                                                                                                                                                                                                                                                                                                                                                                                                                                                                                                              
IPR000398|PR00108|PRINTS|                                                                                                                                                                                                                                                                                                                                                                                                                                                                                                                                                                                               
IPR002673|PD010314|ProDom|                                                                                                                                                                                                                                                                                                                                                                                                                                                                                                                                                                                              
IPR002673|PF01779|Pfam|                                                                                                                                                                                                                                                                                                                                                                                                                                                                                                                                                                                                 
IPR001202|PS01159|PROSITE patterns|                                                                                                                                                                                                                                                                                                                                                                                                                                                                                                                                                                                     
IPR013126|PS00329|PROSITE patterns|                                                                                                                                                                                                                                                                                                                                                                                                                                                                                                                                                                                     
IPR000133|PS00952|PROSITE patterns|                                                                                                                                                                                                                                                                                                                                                                                                                                                                                                                                                                                     
IPR011591|PD001963|ProDom|                                                                                                                                                                                                                                                                                                                                                                                                                                                                                                                                                                                              
IPR002205|PF00521|Pfam|                                                                                                                                                                                                                                                                                                                                                                                                                                                                                                                                                                                                 
IPR000504|PF00076|Pfam|                                                                                                                                                                                                                                                                                                                                                                                                                                                                                                                                                                                                 
IPR013126|PS00297|PROSITE patterns|                                                                                                                                                                                                                                                                                                                                                                                                                                                                                                                                                                                     
IPR013126|PS01036|PROSITE patterns|                                                                                                                                                                                                                                                                                                                                                                                                                                                                                                                                                                                     
IPR000133|PD005774|ProDom|                                                                                                                                                                                                                                                                                                                                                                                                                                                                                                                                                                                              
IPR011014|SSF82861|SUPERFAMILY|                                                                                                                                                                                                                                                                                                                                                                                                                                                                                                                                                                                         
IPR000398|PD001180|ProDom|                                                                                                                                                                                                                                                                                                                                                                                                                                                                                                                                                                                              
IPR001796|PS00075|PROSITE patterns|                                                                                                                                                                                                                                                                                                                                                                                                                                                                                                                                                                                     
IPR002205|SM00434|SMART|                                                                                                                                                                                                                                                                                                                                                                                                                                                                                                                                                                                                
IPR001202|PF00397|Pfam|                                                                                                                                                                                                                                                                                                                                                                                                                                                                                                                                                                                                 
IPR013126|PF00012|Pfam|                                                                                                                                                                                                                                                                                                                                                                                                                                                                                                                                                                                                 
IPR003123|PF02204|Pfam|                                                                                                                                                                                                                                                                                                                                                                                                                                                                                                                                                                                                 
IPR012262|PIRSF000389|PIRSF|                                                                                                                                                                                                                                                                                                                                                                                                                                                                                                                                                                                            
IPR011685|PF07766|Pfam|                                                                                                                                                                                                                                                                                                                                                                                                                                                                                                                                                                                                 
IPR013760|SSF56719|SUPERFAMILY|                                                                                                                                                                                                                                                                                                                                                                                                                                                                                                                                                                                         
IPR000504|PS50102|PROSITE profiles|                                                                                                                                                                                                                                                                                                                                                                                                                                                                                                                                                                                     
IPR000504|SM00360|SMART|                                                                                                                                                                                                                                                                                                                                                                                                                                                                                                                                                                                                
IPR004600|PF03850|Pfam|                                                                                                                                                                                                                                                                                                                                                                                                                                                                                                                                                                                                 
IPR004600|PTHR12831|PANTHER|                                                                                                                                                                                                                                                                                                                                                                                                                                                                                                                                                                                            
IPR004600|TIGR00627|TIGRFAMs|                                                                                                                                                                                                                                                                                                                                                                                                                                                                                                                                                                                           
IPR000133|PS00951|PROSITE patterns|                                                                                                                                                                                                                                                                                                                                                                                                                                                                                                                                                                                     
IPR003123|PS51205|PROSITE profiles|                                                                                                                                                                                                                                                                                                                                                                                                                                                                                                                                                                                     
IPR005475|PF02779|Pfam|                                                                                                                                                                                                                                                                                                                                                                                                                                                                                                                                                                                                 
IPR006153|PF00999|Pfam|                                                                                                                                                                                                                                                                                                                                                                                                                                                                                                                                                                                                 
IPR000398|PS00091|PROSITE patterns|                                                                                                                                                                                                                                                                                                                                                                                                                                                                                                                                                                                     
IPR001796|PF00186|Pfam|                                                                                                                                                                                                                                                                                                                                                                                                                                                                                                                                                                                                 
IPR000133|PF00810|Pfam|                                                                                                                                                                                                                                                                                                                                                                                                                                                                                                                                                                                                 
IPR000133|PR00660|PRINTS|                                                                                                                                                                                                                                                                                                                                                                                                                                                                                                                                                                                               
IPR000133|PTHR10585|PANTHER|                                                                                                                                                                                                                                                                                                                                                                                                                                                                                                                                                                                            
IPR000398|G3DSA:3.30.572.10|GENE3D|                                                                                                                                                                                                                                                                                                                                                                                                                                                                                                                                                                                     
IPR000398|PF00303|Pfam|                                                                                                                                                                                                                                                                                                                                                                                                                                                                                                                                                                                                 
