70914108|XP_731732.1|SEQPC403276.00.0||NO|1|1|1|-214748366|1
70918038|XP_733059.1|SEQPC000815.04.0||NO|1|1|1|-214748367|1
70918650|XP_733268.1|SEQPC107778.00.0||NO|1|1|1|-214748368|1
70932489|XP_737758.1|SEQPC000429.00.0||NO|1|1|1|-214748369|1
70935018|XP_738652.1|SEQPC301391.00.0||NO|1|1|1|-214748370|1
70935239|XP_738732.1|SEQPC000595.04.0||NO|1|1|1|-214748371|1
70935241|XP_738733.1|SEQPC000596.04.0||NO|1|1|1|-214748372|1
70939063|XP_740124.1|SEQPC302596.00.0||NO|1|1|1|-214748373|1
70940688|XP_740727.1|SEQPC000478.04.0||NO|1|1|1|-214748374|1
70940690|XP_740728.1|SEQPC108073.00.0||NO|1|1|1|-214748375|1
70944210|XP_742061.1|SEQPC100126.00.0||NO|1|1|1|-214748376|1
70944212|XP_742062.1|SEQPC100125.00.0||NO|1|1|1|-214748377|1
70946039|XP_742775.1|SEQPC000564.01.0||NO|1|1|1|-214748378|1
70949035|XP_743965.1|SEQPC000025.02.0||NO|1|1|1|-214748379|1
70949037|XP_743966.1|SEQPC103347.00.0||NO|1|1|1|-214748380|1
70949039|XP_743967.1|SEQPC103345.00.0||NO|1|1|1|-214748381|1
70949164|XP_744018.1|SEQPC000199.00.0||NO|1|1|1|-214748382|1
70949166|XP_744019.1|SEQPC000200.00.0||NO|1|1|1|-214748383|1
70949168|XP_744020.1|SEQPC100352.00.0||NO|1|1|1|-214748384|1
70951866|XP_745140.1|SEQPC000865.01.0||NO|1|1|1|-214748385|1
70951868|XP_745141.1|SEQPC103106.00.0||NO|1|1|1|-214748386|1
70952417|XP_745378.1|SEQPC000873.02.0||NO|1|1|1|-214748387|1
70952419|XP_745379.1|SEQPC000874.02.0||NO|1|1|1|-214748388|1
70953884|XP_746016.1|SEQPC000487.02.0||NO|1|1|1|-214748389|1
70953886|XP_746017.1|SEQPC104048.00.0||NO|1|1|1|-214748390|1
70953888|XP_746018.1|SEQPC000490.02.0||NO|1|1|1|-214748391|1
70953890|XP_746019.1|SEQPC000491.02.0||NO|1|1|1|-214748392|1
