IPR001202|PS50020|PROSITE profiles|                                                                                                                                                                                                                                                                                                                                                                                                                                                                                                                                                                                     
IPR001202|SSF51045|SUPERFAMILY|                                                                                                                                                                                                                                                                                                                                                                                                                                                                                                                                                                                         
IPR001202|SM00456|SMART|                                                                                                                                                                                                                                                                                                                                                                                                                                                                                                                                                                                                
IPR012262|PIRSF000389|PIRSF|                                                                                                                                                                                                                                                                                                                                                                                                                                                                                                                                                                                            
IPR000504|PS50102|PROSITE profiles|                                                                                                                                                                                                                                                                                                                                                                                                                                                                                                                                                                                     
IPR000504|SM00360|SMART|                                                                                                                                                                                                                                                                                                                                                                                                                                                                                                                                                                                                
